%YAML 1.1
%TAG !u! tag:unity3d.com,2011:
--- !u!114 &11400000
MonoBehaviour:
  m_ObjectHideFlags: 0
  m_CorrespondingSourceObject: {fileID: 0}
  m_PrefabInstance: {fileID: 0}
  m_PrefabAsset: {fileID: 0}
  m_GameObject: {fileID: 0}
  m_Enabled: 1
  m_EditorHideFlags: 0
  m_Script: {fileID: 11500000, guid: d759b63d75a1af043b023880358f23a4, type: 3}
  m_Name: Wall_Stone_MaterialData
  m_EditorClassIdentifier: 
  materialType: 2
  maxHealth: 500
  newMaterial: {fileID: 2100000, guid: 6afab76ec09456e4e8c062ec7a230b19, type: 2}
  newMesh: {fileID: -5495902117074765545, guid: c3aa0f829603afa4f863b472b438fba4, type: 3}
