%YAML 1.1
%TAG !u! tag:unity3d.com,2011:
--- !u!114 &11400000
MonoBehaviour:
  m_ObjectHideFlags: 0
  m_CorrespondingSourceObject: {fileID: 0}
  m_PrefabInstance: {fileID: 0}
  m_PrefabAsset: {fileID: 0}
  m_GameObject: {fileID: 0}
  m_Enabled: 1
  m_EditorHideFlags: 0
  m_Script: {fileID: 11500000, guid: d759b63d75a1af043b023880358f23a4, type: 3}
  m_Name: DoorFrame_Twig_MaterialData
  m_EditorClassIdentifier: 
  materialType: 0
  maxHealth: 50
  newMaterial: {fileID: 2100000, guid: 74989374921464b42872bc3747a223eb, type: 2}
  newMesh: {fileID: 5655645264096070075, guid: 06974545446230a4b8c4caafc4b1122d, type: 3}
  destroyedObject: {fileID: 3953947667656093454, guid: bb579887042bb96459f746e95cfaa072, type: 3}
